James Routley | Feed
…
Underlying imagery filenames are documented in the IMAGE_NAME field.

SELECT   IMAGE_NAME,
         COUNT(*)
FROM     READ_PARQUET('*.pq')
GROUP BY 1
ORDER BY 2 DESC;

┌─────────────────────────────────────┬──────────────┐
│             IMAGE_NAME              │ count_star() │
│               varchar               │    int64     │
├─────────────────────────────────────┼──────────────┤
│ Li234-Los Angeles                   │      2508188 │
│ Li279-Dallas                        │      1126980 │
│ Li135-Washington                    │      1059116 │
│ Li250-New York City                 │      1052991 │
│ Li213-Chicago                       │      1041121 │
│ Li241-San Fransico- Oakland         │       913385 │
│ Li238-Philadelphia- Wilmington      │       897701 │
│ Li272-Miami                         │       846854 │
│ Li257-Phoenix                       │       781002 │
│ Li219-Minneapolis                   │       738935 │
│ Li227-Denver                        │       723380 │
│ Li275-Detroit                       │       544929 │
│ Li185-Houston                       │       520854 │
│ Li244-Tampa Bay                     │       515032 │
│ Li243-St. Louis                     │       512304 │
│ Li271-Las Vegas                     │       510711 │
│ Li239-San Antonio                   │       507526 │
│ 1040010050CF1C00                    │       473934 │
│ Li218-Atlanta                       │       458947 │
│ Li195-akron- cleveland              │       441440 │
│           ·                         │            · │
│           ·                         │            · │
│           ·                         │            · │
│ m_3708663_sw_16_1_20140705_20141201 │            1 │
│ m_3608240_sw_17_1_20140506_20140728 │            1 │
│ m_3608662_sw_16_1_20140711_20141113 │            1 │
│ m_3508437_sw_16_1_20140503_20140710 │            1 │
│ m_4711831_sw_11_1_20130628_20130820 │            1 │
│ 1045006                             │            1 │
│ 1050410001C9BB00                    │            1 │
│ 103001003FBA5200                    │            1 │
│ 1040010001064900                    │            1 │
│ 103001006AAA3500                    │            1 │
│ 1040010017225600                    │            1 │
│ m_4606936_ne_19_1_20130721_20131029 │            1 │
│ m_3908414_ne_16_1_20130924_20131031 │            1 │
│ 1043752                             │            1 │
│ 1045406                             │            1 │
│ m_4008604_nw_16_1_20141025_20141201 │            1 │
│ m_3708856_se_16_1_20140623_20141201 │            1 │
│ m_4711419_se_11_1_20130821_20131022 │            1 │
│ m_4209707_ne_14_1_20140926_20141113 │            1 │
│ m_3508655_se_16_1_20141022_20141113 │            1 │
├─────────────────────────────────────┴──────────────┤
│ 20394 rows (40 shown)                    2 columns │
└────────────────────────────────────────────────────┘
…
