James Routley | Feed
…
Of the 15,017 arrays in this dataset, only 5,358 have any panels in them.

.maxrows 20

SELECT   a.arrayID,
         COUNT(DISTINCT b.panelID)
FROM     READ_PARQUET('arrays.parquet') a
JOIN     READ_PARQUET('panels.parquet') b
ON       ST_COVERS(a.geometry, b.geometry)
GROUP BY a.arrayID
ORDER BY 2 DESC;

┌─────────┬───────────────────────────┐
│ arrayID │ count(DISTINCT b.panelID) │
│  int64  │           int64           │
├─────────┼───────────────────────────┤
│   11958 │                     56762 │
│   14225 │                     51140 │
│   12162 │                     43741 │
│   12433 │                     37304 │
│   14461 │                     31898 │
│   13229 │                     30093 │
│    6589 │                     27080 │
│   13329 │                     25120 │
│   12597 │                     24054 │
│   12224 │                     23449 │
│      ·  │                         · │
│      ·  │                         · │
│      ·  │                         · │
│    1792 │                         1 │
│    2286 │                         1 │
│     863 │                         1 │
│    1816 │                         1 │
│    8997 │                         1 │
│   12358 │                         1 │
│    6564 │                         1 │
│    3845 │                         1 │
│    6574 │                         1 │
│     991 │                         1 │
├─────────┴───────────────────────────┤
│ 5358 rows (20 shown)      2 columns │
└─────────────────────────────────────┘
…
