James Routley | Feed
…
Starbucks

There are a total of 53,022 records that match Starbucks in this dataset. Starbucks had 38K outlets last year. This 53K figure could also include locations they've since closed down.

Most records are simply named "Starbucks" but there is a longtail of variations as well.

SELECT   COUNT(*),
         name
FROM     READ_PARQUET('*.parquet')
WHERE    name ILIKE '%starbucks%'
GROUP BY 2
ORDER BY 1 DESC;

┌──────────────┬─────────────────────────────────────┐
│ count_star() │                name                 │
│    int64     │               varchar               │
├──────────────┼─────────────────────────────────────┤
│        42167 │ Starbucks                           │
│          589 │ Starbucks Coffee                    │
│          588 │ Starbucks (ستاربكس)                 │
│          480 │ Starbucks 星巴克                    │
│          367 │ Starbucks (สตาร์บัคส์)                 │
│          289 │ Starbucks (星巴克)                  │
│          248 │ Starbucks Reserve                   │
│          172 │ starbucks                           │
│          133 │ 星巴克 Starbucks                    │
│          122 │ Starbucks On The Go                 │
│          108 │ Starbucks Reserve 星巴克臻选        │
│           48 │ STARBUCKS                           │
│           47 │ Starbucks coffee                    │
│           46 │ Starbucks | ستاربكس                 │
│           39 │ STARBUCKS COFFEE                    │
│           35 │ Starbucks Drive Thru                │
│           34 │ Starbucks Coffe                     │
│           18 │ starbucks coffee                    │
│           15 │ Starbucks coffe                     │
│           15 │ Starbucks / ستاربكس                 │
│            · │          ·                          │
│            · │          ·                          │
│            · │          ·                          │
│            1 │ Starbucks Ferry Terminal            │
│            1 │ Starbucks Dallah                    │
│            1 │ starbucks Atyafmall                 │
│            1 │ Starbucks Naz                       │
│            1 │ 24hr Starbucks                      │
│            1 │ Starbucks At Nemours                │
│            1 │ Starbucks.SU                        │
│            1 │ Starbucks Metropolis Mall           │
│            1 │ Starbucks Atakum                    │
│            1 │ Starbucks - Travis Air Force Base   │
│            1 │ Toyota South Campus Starbucks       │
│            1 │ Starbucks Coffee Pejaten            │
│            1 │ Starbucks blok m                    │
│            1 │ Starbucks Kemang village            │
│            1 │ Starbucks km.97                     │
│            1 │ Starbucks Muara Bungo Mall          │
│            1 │ Starbucks Ngagel                    │
│            1 │ Starbucks libi                      │
│            1 │ Starbucks Coffee Kuta               │
│            1 │ Starbucks Coffee 広尾有栖川公園前店 │
├──────────────┴─────────────────────────────────────┤
│ 6560 rows (40 shown)                     2 columns │
└────────────────────────────────────────────────────┘
…
