James Routley | Feed
…
$ jq .pois 7006.mvt.json \
    > 7006.pois.mvt.json
$ ~/duckdb

Below are the records where a cuisine value is present.

.maxrows 10

SELECT geom,
       amenity,
       cuisine
FROM   ST_READ('7006.pois.mvt.json')
WHERE  cuisine IS NOT NULL;

┌───────────────────────────────────────────────┬────────────┬─────────────┐
│                     geom                      │  amenity   │   cuisine   │
│                   geometry                    │  varchar   │   varchar   │
├───────────────────────────────────────────────┼────────────┼─────────────┤
│ POINT (55.27600407600403 25.19474315833422)   │ restaurant │ french      │
│ POINT (55.27602016925812 25.194947029527537)  │ fast_food  │ greek       │
│ POINT (55.27712523937225 25.194786845047236)  │ restaurant │ american    │
│ POINT (55.27717888355255 25.194961591742572)  │ restaurant │ lebanese    │
│ POINT (55.27799963951111 25.19481596951387)   │ restaurant │ lebanese    │
│                      ·                        │  ·         │    ·        │
│                      ·                        │  ·         │    ·        │
│                      ·                        │  ·         │    ·        │
│ POINT (55.265355706214905 25.189505493297244) │ cafe       │ coffee_shop │
│ POINT (55.265318155288696 25.189209381318772) │ restaurant │ asian       │
│ POINT (55.265103578567505 25.189209381318772) │ restaurant │ persian     │
│ POINT (55.263118743896484 25.18939384460301)  │ fast_food  │ chicken     │
│ POINT (55.263070464134216 25.189340447365243) │ restaurant │ pizza       │
├───────────────────────────────────────────────┴────────────┴─────────────┤
│ 67 rows (10 shown)                                             3 columns │
└──────────────────────────────────────────────────────────────────────────┘
…
