James Routley | Feed
…
Not every centroid landed on a polygon for any of the countries listed in GADM. It could be that the missing ~1.5M image locations are just off of the coast or out in territorial waters.

SELECT SUM(num_recs)
FROM   countries;

Nonetheless, the following should be representative of how often any one country features in this dataset.

FROM     countries
ORDER BY num_recs DESC;

┌────────────────────────┬──────────┐
│        country         │ num_recs │
│        varchar         │  int128  │
├────────────────────────┼──────────┤
│ United States          │   886871 │
│ Saudi Arabia           │   428122 │
│ Australia              │   423079 │
│ Spain                  │   326465 │
│ China                  │   324572 │
│ México                 │   304916 │
│ Pakistan               │   293720 │
│ Russia                 │   250520 │
│ Ukraine                │   184756 │
│ Brazil                 │   176929 │
│ Argentina              │   156790 │
│ Albania                │   115472 │
│ United Arab Emirates   │   114530 │
│ Oman                   │   102500 │
│ Bangladesh             │   101888 │
│ Iran                   │    98160 │
│ India                  │    81026 │
│ Iraq                   │    72990 │
│ Canada                 │    65153 │
│ North Korea            │    64570 │
│   ·                    │       ·  │
│   ·                    │       ·  │
│   ·                    │       ·  │
│ Haiti                  │     1519 │
│ Denmark                │     1428 │
│ Moldova                │     1384 │
│ Romania                │     1291 │
│ Mozambique             │     1217 │
│ South Korea            │     1188 │
│ Colombia               │     1139 │
│ Northern Cyprus        │     1088 │
│ Slovakia               │     1075 │
│ Indonesia              │     1070 │
│ Dominican Republic     │      717 │
│ Trinidad and Tobago    │      592 │
│ Somalia                │      563 │
│ Switzerland            │      511 │
│ Serbia                 │      472 │
│ Guam                   │      431 │
│ Cuba                   │      370 │
│ Bosnia and Herzegovina │      289 │
│ Philippines            │      263 │
│ Barbados               │      244 │
├────────────────────────┴──────────┤
│ 127 rows (40 shown)     2 columns │
└───────────────────────────────────┘
…
