James Routley | Feed
…
These are the smallest and largest files in the LoD1 dataset.

SELECT   content_length,
         folder,
         filename
FROM     'lods1.enriched.json'
ORDER BY content_length;

┌────────────────┬────────────────────┬───────────────────────────┐
│ content_length │       folder       │         filename          │
│     int64      │      varchar       │          varchar          │
├────────────────┼────────────────────┼───────────────────────────┤
│            674 │ /LoD1/asiaeast     │ e135_n25_e140_n20.geojson │
│            677 │ /LoD1/asiaeast     │ e170_n75_e175_n70.geojson │
│           2137 │ /LoD1/northamerica │ w050_n60_w045_n55.geojson │
│           3437 │ /LoD1/asiawest     │ e095_n70_e100_n65.geojson │
│           5746 │ /LoD1/northamerica │ w105_n65_w100_n60.geojson │
│           6913 │ /LoD1/northamerica │ w145_n60_w140_n55.geojson │
│          11094 │ /LoD1/southamerica │ w030_s20_w025_s25.geojson │
│          12586 │ /LoD1/northamerica │ w125_n75_w120_n70.geojson │
│          14778 │ /LoD1/northamerica │ w075_n60_w070_n55.geojson │
│          15223 │ /LoD1/oceania      │ e165_n05_e170_n00.geojson │
│          18611 │ /LoD1/asiaeast     │ e150_n75_e155_n70.geojson │
│          20510 │ /LoD1/oceania      │ e115_s15_e120_s20.geojson │
│          23356 │ /LoD1/asiaeast     │ e115_n75_e120_n70.geojson │
│          27109 │ /LoD1/northamerica │ w150_n60_w145_n55.geojson │
│          29734 │ /LoD1/asiawest     │ e085_n75_e090_n70.geojson │
│          31258 │ /LoD1/oceania      │ e065_s45_e070_s50.geojson │
│          32752 │ /LoD1/asiaeast     │ e160_n55_e165_n50.geojson │
│          32891 │ /LoD1/northamerica │ w170_n20_w165_n15.geojson │
│          33177 │ /LoD1/europe       │ e055_n75_e060_n70.geojson │
│          34303 │ /LoD1/northamerica │ w065_n65_w060_n60.geojson │
│            ·   │      ·             │             ·             │
│            ·   │      ·             │             ·             │
│            ·   │      ·             │             ·             │
│    12115126130 │ /LoD1/europe       │ e005_n50_e010_n45.geojson │
│    12663234796 │ /LoD1/asiawest     │ e090_n25_e095_n20.geojson │
│    12907517141 │ /LoD1/africa       │ e030_n05_e035_n00.geojson │
│    13682576090 │ /LoD1/northamerica │ w100_n20_w095_n15.geojson │
│    13778082922 │ /LoD1/asiawest     │ e075_n20_e080_n15.geojson │
│    13858487472 │ /LoD1/asiawest     │ e070_n30_e075_n25.geojson │
│    14316795070 │ /LoD1/asiawest     │ e075_n25_e080_n20.geojson │
│    14440822865 │ /LoD1/asiawest     │ e105_n15_e110_n10.geojson │
│    14459258848 │ /LoD1/southamerica │ w050_s20_w045_s25.geojson │
│    14558343630 │ /LoD1/asiawest     │ e080_n25_e085_n20.geojson │
│    15756826807 │ /LoD1/europe       │ e005_n55_e010_n50.geojson │
│    15986484228 │ /LoD1/oceania      │ e105_s05_e110_s10.geojson │
│    16830813690 │ /LoD1/asiawest     │ e070_n25_e075_n20.geojson │
│    18731290715 │ /LoD1/oceania      │ e110_s05_e115_s10.geojson │
│    22094633389 │ /LoD1/asiawest     │ e085_n30_e090_n25.geojson │
│    24040590951 │ /LoD1/asiawest     │ e070_n35_e075_n30.geojson │
│    24784041081 │ /LoD1/asiawest     │ e075_n15_e080_n10.geojson │
│    27418761453 │ /LoD1/asiawest     │ e085_n25_e090_n20.geojson │
│    31113223192 │ /LoD1/asiawest     │ e080_n30_e085_n25.geojson │
│    31830016696 │ /LoD1/asiawest     │ e075_n30_e080_n25.geojson │
├────────────────┴────────────────────┴───────────────────────────┤
│ 922 rows (40 shown)                                   3 columns │
└─────────────────────────────────────────────────────────────────┘
…
